{
    "DEFAULT_LOG_LEVEL": "INFO",

    "CSV_DELIMITER": "|",
    "OUTPUT_FORMATS": [
        "txt",
        "csv",
        "json"
    ],
    "DEFAULT_OUTPUT_FORMAT": "txt",

    "DIALECTS": [
        "Iraqi",
        "nafrican",
        "Classical",
        "Egyptian",
        "Gulf",
        "Levantine"
    ],

    "DEFAULT_DIALECT": "Iraqi",

    "INPUT_COLUMNS": {
        "dialect": 0,
        "word": 5,
        "meaning": 7,
        "examples": 8
    },

    "ARABIC_MODEL_NAME": "aubmindlab/bert-base-arabertv2",
    "ENGLISH_MODEL_NAME": "bert-base-uncased",

    "N_EPOCHS": 300,
    "LEARNING_RATE": 0.01,

    "CACHE_SIZE": 10000,

    "SAMPLE_SIZE": 2000,

    "WEIGHTS": [
        -0.2045,
        -0.4501,
        0.0292,
        -0.0311,
        -0.4399,
        -0.4113,
        0.2034,
        1.0451,
        0.7457,
        0.3789,
        -0.3856,
        0.2451
    ]
}
